<?xml version="1.0" encoding="utf-8"?>
<!-- Generator: Adobe Illustrator 18.0.0, SVG Export Plug-In . SVG Version: 6.00 Build 0)  -->
<!DOCTYPE svg PUBLIC "-//W3C//DTD SVG 1.1//EN" "http://www.w3.org/Graphics/SVG/1.1/DTD/svg11.dtd">
<svg version="1.1" id="Layer_1" xmlns="http://www.w3.org/2000/svg" xmlns:xlink="http://www.w3.org/1999/xlink" x="0px" y="0px"
	 viewBox="0 0 162.5 18.1" enable-background="new 0 0 162.5 18.1" xml:space="preserve">
<g>
	<path fill="#EEEFEF" d="M11,12.5c0,3.7-2.2,5.7-5.7,5.7c-2.2,0-4-1-5.4-2.6l1.5-2.3c1.2,1.3,2.6,2,3.9,2c1.6,0,2.6-1,2.6-2.9V2.6
		H1.6v-2.8H11V12.5z"/>
	<path fill="#EEEFEF" d="M30.5,14l-1.7,4.1h-3.2l8-18.2h3.1l8,18.2h-3.3L39.7,14H30.5z M35,3.1l-3.4,8.1h6.9L35,3.1z"/>
	<path fill="#EEEFEF" d="M74.4,18.1L70.1,3.9l-4.4,14.2h-3.2l-6-18.2h3.3l4.4,14.8l4.4-14.8l3,0l4.4,14.8l4.4-14.8h3.2l-6.1,18.2
		H74.4z"/>
	<path fill="#EEEFEF" d="M106-0.1c4.6,0,7.2,2.3,7.2,6.2c0,4.1-2.6,6.5-7.2,6.5h-4.2v5.5h-3.1V-0.1H106z M101.8,9.8h4.1
		c2.8,0,4.4-1.2,4.4-3.7c0-2.4-1.6-3.5-4.4-3.5h-4.1V9.8z"/>
	<path fill="#EEEFEF" d="M129.2,18.1V-0.1h3.1v18.2H129.2z"/>
	<path fill="#EEEFEF" d="M156.8,2.6v15.4h-3.1V2.6h-5.7v-2.8h14.6v2.8H156.8z"/>
</g>
</svg>
